<?xml version="1.0" encoding="utf-8"?>
<!-- Generator: Adobe Illustrator 21.1.0, SVG Export Plug-In . SVG Version: 6.00 Build 0)  -->
<svg version="1.1" id="Camada_1" xmlns="http://www.w3.org/2000/svg" xmlns:xlink="http://www.w3.org/1999/xlink" x="0px" y="0px"
	 viewBox="0 0 278 376" style="enable-background:new 0 0 278 376;" xml:space="preserve">
<style type="text/css">
	.st0{fill:#FFFFFF;}
	.st1{fill:#095BA6;}
</style>
<title>conteúdo</title>
<g id="Camada_2">
	<g id="Camada_1-2">
		<path class="st0" d="M54,36H36v280h206V36H78c-3.3,0-6-2.7-6-6H60C60,33.3,57.3,36,54,36z M139,296H62c-3.3,0-6-2.7-6-6s2.7-6,6-6
			h77c3.3,0,6,2.7,6,6S142.3,296,139,296z M216,267.5H62c-3.3,0-6-2.7-6-6s2.7-6,6-6h154c3.3,0,6,2.7,6,6S219.3,267.5,216,267.5z
			 M216,239H62c-3.3,0-6-2.7-6-6s2.7-6,6-6h154c3.3,0,6,2.7,6,6S219.3,239,216,239z M216,210.5H62c-3.3,0-6-2.7-6-6s2.7-6,6-6h154
			c3.3,0,6,2.7,6,6S219.3,210.5,216,210.5z M216,182H62c-3.3,0-6-2.7-6-6s2.7-6,6-6h154c3.3,0,6,2.7,6,6S219.3,182,216,182z
			 M216,153.5H62c-3.3,0-6-2.7-6-6s2.7-6,6-6h154c3.3,0,6,2.7,6,6S219.3,153.5,216,153.5z M56,119c0-3.3,2.7-6,6-6h77
			c3.3,0,6,2.7,6,6s-2.7,6-6,6H62C58.7,125,56,122.3,56,119z M216,96.5H62c-3.3,0-6-2.7-6-6s2.7-6,6-6h154c3.3,0,6,2.7,6,6
			S219.3,96.5,216,96.5z M216,56c3.3,0,6,2.7,6,6c0,3.3-2.7,6-6,6H62c-3.3,0-6-2.7-6-6c0-3.3,2.7-6,6-6H216z"/>
		<path class="st1" d="M248,0H30C13.4,0,0,13.4,0,30v316c0,16.6,13.4,30,30,30l0,0h218c16.6,0,30-13.4,30-30l0,0V30
			C278,13.4,264.6,0,248,0z M266,346c0,9.9-8.1,18-18,18H30c-9.9,0-18-8.1-18-18V30c0-9.9,8.1-18,18-18h218c9.9,0,18,8.1,18,18V346z
			"/>
		<path class="st1" d="M248,24H78c-3.3,0-6,2.7-6,6s2.7,6,6,6h164v280H36V36h18c3.3,0,6-2.7,6-6s-2.7-6-6-6H30c-3.3,0-6,2.7-6,6v292
			c0,3.3,2.7,6,6,6h218c3.3,0,6-2.7,6-6V30C254,26.7,251.3,24,248,24z"/>
		<path class="st1" d="M151,340h-24c-3.3,0-6,2.7-6,6s2.7,6,6,6l0,0h24c3.3,0,6-2.7,6-6S154.3,340,151,340z"/>
		<path class="st1" d="M56,62c0,3.3,2.7,6,6,6h154c3.3,0,6-2.7,6-6c0-3.3-2.7-6-6-6H62C58.7,56,56,58.7,56,62z"/>
		<path class="st1" d="M216,84.5H62c-3.3,0-6,2.7-6,6s2.7,6,6,6h154c3.3,0,6-2.7,6-6S219.3,84.5,216,84.5z"/>
		<path class="st1" d="M62,125h77c3.3,0,6-2.7,6-6s-2.7-6-6-6H62c-3.3,0-6,2.7-6,6S58.7,125,62,125z"/>
		<path class="st1" d="M216,141.5H62c-3.3,0-6,2.7-6,6s2.7,6,6,6h154c3.3,0,6-2.7,6-6S219.3,141.5,216,141.5z"/>
		<path class="st1" d="M216,170H62c-3.3,0-6,2.7-6,6s2.7,6,6,6h154c3.3,0,6-2.7,6-6S219.3,170,216,170z"/>
		<path class="st1" d="M216,198.5H62c-3.3,0-6,2.7-6,6s2.7,6,6,6h154c3.3,0,6-2.7,6-6S219.3,198.5,216,198.5z"/>
		<path class="st1" d="M216,227H62c-3.3,0-6,2.7-6,6s2.7,6,6,6h154c3.3,0,6-2.7,6-6S219.3,227,216,227z"/>
		<path class="st1" d="M216,255.5H62c-3.3,0-6,2.7-6,6s2.7,6,6,6h154c3.3,0,6-2.7,6-6S219.3,255.5,216,255.5z"/>
		<path class="st1" d="M139,284H62c-3.3,0-6,2.7-6,6s2.7,6,6,6h77c3.3,0,6-2.7,6-6S142.3,284,139,284z"/>
	</g>
</g>
</svg>
