<?xml version="1.0" encoding="utf-8"?>
<!-- Generator: Adobe Illustrator 21.0.0, SVG Export Plug-In . SVG Version: 6.00 Build 0)  -->
<svg version="1.1" id="Camada_1" xmlns="http://www.w3.org/2000/svg" xmlns:xlink="http://www.w3.org/1999/xlink" x="0px" y="0px"
	 viewBox="0 0 1367 1367" style="enable-background:new 0 0 1367 1367;" xml:space="preserve">
<style type="text/css">
	.st0{fill:#FFFFFF;stroke:#095BA6;stroke-width:47.2304;stroke-linecap:round;stroke-linejoin:round;}
	.st1{fill:none;}
</style>
<g id="Camada_x0020_1">
	<g id="_148040963440">
		<g>
			<path class="st0" d="M120,360c86-37,171-68,257-68s172,32,258,68c26,11,47,47,47,78c0,122,0,243,0,364s0,243,0,364
				c0,31-21,47-47,39c-86-26-172-48-258-48s-171,24-257,49c-26,8-47-9-47-40c0-121,0-243,0-364s0-242,0-364C73,407,94,371,120,360z"
				/>
			<path class="st0" d="M1243,360c-86-37-171-68-257-68s-172,32-258,68c-26,11-46,47-46,78c0,122,0,243,0,364s0,243,0,364
				c0,31,20,47,46,39c86-26,172-48,258-48s171,24,257,49c26,8,47-9,47-40c0-121,0-243,0-364s0-242,0-364C1290,407,1269,371,1243,360
				z"/>
			<path class="st0" d="M93,379c204-124,399-109,589,0c0,271,0,542,0,812c-183-81-379-85-589,0C93,921,93,650,93,379z"/>
			<path class="st0" d="M1270,379c-204-124-399-109-588,0c0,271,0,542,0,812c182-81,378-85,588,0C1270,921,1270,650,1270,379z"/>
			<path class="st0" d="M213,219c162-69,375-26,469,160c0,271,0,542,0,812c-120-162-302-188-469-160C213,760,213,489,213,219z"/>
			<path class="st0" d="M1150,219c-162-69-375-26-468,160c0,271,0,542,0,812c119-162,301-188,468-160C1150,760,1150,489,1150,219z"
				/>
		</g>
		<g>
			<circle class="st0" cx="682" cy="500" r="345"/>
			<polygon class="st0" points="577,318 734,409 891,500 734,591 577,682 577,500 			"/>
		</g>
	</g>
	<rect x="-2" y="-2" class="st1" width="1367" height="1367"/>
</g>
</svg>
