<?xml version="1.0" encoding="utf-8"?>
<!-- Generator: Adobe Illustrator 22.0.0, SVG Export Plug-In . SVG Version: 6.00 Build 0)  -->
<svg version="1.1" id="Camada_1" xmlns="http://www.w3.org/2000/svg" xmlns:xlink="http://www.w3.org/1999/xlink" x="0px" y="0px"
	 viewBox="0 0 94.6 92.4" style="enable-background:new 0 0 94.6 92.4;" xml:space="preserve">
<style type="text/css">
	.st0{fill:none;stroke:#4ABBC0;stroke-width:5;stroke-linecap:round;stroke-linejoin:round;}
</style>
<title>Apresentação</title>
<g id="Camada_2_1_">
	<g id="Camada_1-2">
		<path class="st0" d="M2.5,49.8V3.9c0-0.8,0.6-1.4,1.4-1.4l0,0h86.8c0.8,0,1.4,0.6,1.4,1.4l0,0v58.2c0,0.8-0.6,1.4-1.4,1.4H10.2
			 M47.3,11.7c11.8,0,21.3,9.5,21.4,21.3c0,11.8-9.5,21.3-21.3,21.4C35.6,54.4,26,44.8,26,33.1c0,0,0,0,0-0.1
			C26,21.2,35.5,11.7,47.3,11.7z M43.1,22.9l8,4.6l8.1,4.7c1,0.6,0.9,1.5-0.1,2.1l-8,4.6L43,43.5c-1,0.6-1.8,0-1.8-1.1
			c0-3.1,0-6.2,0-9.2v-9.3C41.2,22.8,42.1,22.4,43.1,22.9L43.1,22.9z M47.3,73.3V90 M23.1,71.9l-4.7,11.9 M71.4,71.6l4.7,11.9"/>
	</g>
</g>
</svg>
