<?xml version="1.0" encoding="utf-8"?>
<!-- Generator: Adobe Illustrator 22.0.0, SVG Export Plug-In . SVG Version: 6.00 Build 0)  -->
<svg version="1.1" id="Camada_1" xmlns="http://www.w3.org/2000/svg" xmlns:xlink="http://www.w3.org/1999/xlink" x="0px" y="0px"
	 viewBox="0 0 96 96" style="enable-background:new 0 0 96 96;" xml:space="preserve">
<style type="text/css">
	.st0{fill:none;stroke:#4ABBC0;stroke-width:5;stroke-linecap:round;stroke-linejoin:round;}
</style>
<title>icones</title>
<path class="st0" d="M51.4,91.5L64.3,83c2.3-1.5,2.4-2.9,2-4.3c-1.2-4.6-11.1-3.6-12.8-10.1s6.6-14.7,13-12
	c5.9,2.5,5.1,11.2,8.9,12.1c1.2,0.3,2.5,0.3,4.2-1.6l14.6-16.5L78.5,39.5c-2.2-1.3-3.1-2.8-2.9-4.4c0.6-5.5,11.6-7.5,14.7-13.4
	c2.5-4.8-6.5-13-11.7-10.6c-6.2,2.9-8.4,12.8-13.5,12.9c-1.4,0-2.7-0.8-3.8-2.5L51.2,7.3L33.6,18.9c-2.5,1.7-2.8,3.4-2.4,4.8
	c1.2,3.9,10.9,3.9,12.8,10.3c2,6.8-7.5,14.3-13.8,11.2c-5.5-2.7-4.7-10.9-8.5-11.8c-1.4-0.3-3.5,0.2-5.4,2.7L4,53l33.6,34.2"/>
</svg>
